{
  "project_info": {
    "project_number": "1066157753017",
    "firebase_url": "https://top-friends-b73c6.firebaseio.com",
    "project_id": "top-friends-b73c6",
    "storage_bucket": "top-friends-b73c6.appspot.com"
  },
  "client": [
    {
      "client_info": {
        "mobilesdk_app_id": "1:1066157753017:android:d53133086302e3b4",
        "android_client_info": {
          "package_name": "li.ues.topfriends"
        }
      },
      "oauth_client": [
        {
          "client_id": "1066157753017-08o87sudrsf7e5p69fvcn1lcjo9uefmf.apps.googleusercontent.com",
          "client_type": 3
        }
      ],
      "api_key": [
        {
          "current_key": "AIzaSyA5bHJS3jiDej8lLwYbZ55hPBZSLix8Bi8"
        }
      ],
      "services": {
        "appinvite_service": {
          "other_platform_oauth_client": [
            {
              "client_id": "1066157753017-08o87sudrsf7e5p69fvcn1lcjo9uefmf.apps.googleusercontent.com",
              "client_type": 3
            }
          ]
        },
        "analytics_service": {
          "status": 2,
          "analytics_property": {
            "tracking_id": "UA-37320327-2"
          }
        },
        "cloud_messaging_service": {
          "status": 2,
          "apns_config": []
        },
        "google_signin_service": {
          "status": 1
        }
      },
      "admob_app_id": "ca-app-pub-1872221771266172~6013176690"
    }
  ],
  "configuration_version": "1"
}